{
  "dev": {
    "awscloudformation": {
      "AuthRoleName": "amplify-myapp-dev-171222-authRole",
      "UnauthRoleArn": "arn:aws:iam::356569360373:role/amplify-myapp-dev-171222-unauthRole",
      "AuthRoleArn": "arn:aws:iam::356569360373:role/amplify-myapp-dev-171222-authRole",
      "Region": "eu-central-1",
      "DeploymentBucketName": "amplify-myapp-dev-171222-deployment",
      "UnauthRoleName": "amplify-myapp-dev-171222-unauthRole",
      "StackName": "amplify-myapp-dev-171222",
      "StackId": "arn:aws:cloudformation:eu-central-1:356569360373:stack/amplify-myapp-dev-171222/b052fe30-09d0-11ed-b741-02ccb178f642",
      "AmplifyAppId": "d1f39lcb1l51pe"
    },
    "categories": {
      "auth": {
        "myappb9467007": {}
      }
    }
  }
}